[gd_scene load_steps=6 format=2]

[ext_resource path="res://objects/Wordgirl/Sprite/Wordgirl Baby Boogie 1.png" type="Texture" id=1]
[ext_resource path="res://objects/Wordgirl/Sprite/Wordgirl Baby Boogie 3.png" type="Texture" id=2]
[ext_resource path="res://objects/Wordgirl/Sprite/Wordgirl Baby Boogie 2.png" type="Texture" id=3]

[sub_resource type="SpriteFrames" id=1]
animations = [ {
"frames": [ ExtResource( 2 ), ExtResource( 1 ), ExtResource( 3 ) ],
"loop": true,
"name": "default",
"speed": 5.0
} ]

[sub_resource type="CapsuleShape2D" id=2]
radius = 43.0
height = 108.0

[node name="KinematicBody2D" type="KinematicBody2D"]

[node name="AnimatedSprite" type="AnimatedSprite" parent="."]
position = Vector2( 129, 5 )
frames = SubResource( 1 )
frame = 1
playing = true

[node name="CollisionShape2D" type="CollisionShape2D" parent="."]
position = Vector2( -2, -8 )
shape = SubResource( 2 )
